20

6
George Washington
John Adams
Thomas Jefferson
James Madison
James Monroe
John Quincy Adams
1 5 4 2 6 3
1 5 3 6 4 2
4 2 1 3 5 6
6 3 1 4 5 2
4 5 3 6 2 1
1 6 4 2 5 3
5 2 3 4 6 1
4 5 2 3 6 1

2
George Washington
John Adams
1 2
1 2
1 2
1 2
1 2

2
George Washington
John Adams
2 1
2 1
1 2
2 1
1 2
2 1
1 2
1 2
2 1

10
George Washington
John Adams
Thomas Jefferson
James Madison
James Monroe
John Quincy Adams
Andrew Jackson
Martin Van Buren
William Henry Harrison
John Tyler
5 8 10 7 3 6 1 9 2 4
3 5 2 10 6 4 8 1 7 9
9 1 4 7 2 5 10 3 8 6
6 2 1 8 4 7 5 3 10 9
10 1 6 3 8 5 9 4 2 7
2 8 3 1 9 4 6 7 10 5

1
George Washington
1
1
1
1
1
1
1
1

4
George Washington
John Adams
Thomas Jefferson
James Madison
1 3 2 4
3 4 1 2
1 2 4 3
3 4 1 2
4 1 2 3
2 1 4 3
1 4 2 3
2 4 3 1

9
George Washington
John Adams
Thomas Jefferson
James Madison
James Monroe
John Quincy Adams
Andrew Jackson
Martin Van Buren
William Henry Harrison
7 8 1 2 5 6 3 9 4
4 1 7 9 6 5 2 3 8
3 5 8 2 9 1 7 6 4
7 9 3 5 4 1 8 6 2
3 2 8 5 6 7 1 9 4
4 2 6 1 5 3 9 7 8
3 2 5 1 8 6 4 7 9
9 8 7 2 4 1 3 5 6

5
George Washington
John Adams
Thomas Jefferson
James Madison
James Monroe
5 1 4 3 2
2 1 5 3 4
3 4 5 1 2
1 2 3 5 4

4
George Washington
John Adams
Thomas Jefferson
James Madison
4 2 3 1
4 3 2 1
1 2 3 4
1 4 3 2
2 3 1 4
4 3 2 1

9
George Washington
John Adams
Thomas Jefferson
James Madison
James Monroe
John Quincy Adams
Andrew Jackson
Martin Van Buren
William Henry Harrison
6 1 4 9 2 8 3 7 5
7 2 5 4 6 9 1 3 8
8 7 1 6 9 2 5 4 3
9 1 3 2 5 7 8 4 6
4 2 5 6 9 8 3 7 1
8 6 7 1 5 9 3 4 2
6 2 4 8 1 5 7 3 9
9 1 6 2 3 5 4 8 7

4
George Washington
John Adams
Thomas Jefferson
James Madison
3 1 4 2
4 3 1 2
4 1 3 2
2 1 4 3
1 3 2 4

9
George Washington
John Adams
Thomas Jefferson
James Madison
James Monroe
John Quincy Adams
Andrew Jackson
Martin Van Buren
William Henry Harrison
8 6 5 9 7 3 1 4 2
9 7 1 6 5 8 2 3 4
1 5 7 9 6 4 8 2 3
7 8 3 4 1 2 6 9 5

5
George Washington
John Adams
Thomas Jefferson
James Madison
James Monroe
4 5 2 3 1
5 3 1 4 2

1
George Washington
1
1
1
1
1

10
George Washington
John Adams
Thomas Jefferson
James Madison
James Monroe
John Quincy Adams
Andrew Jackson
Martin Van Buren
William Henry Harrison
John Tyler
9 5 8 4 2 1 6 7 3 10
1 3 9 4 2 8 10 7 6 5
9 7 8 2 10 5 1 6 4 3
7 8 1 5 9 3 10 4 2 6
3 1 2 6 4 7 8 9 5 10

9
George Washington
John Adams
Thomas Jefferson
James Madison
James Monroe
John Quincy Adams
Andrew Jackson
Martin Van Buren
William Henry Harrison
3 1 7 9 5 6 4 8 2
2 1 5 8 6 3 7 4 9

6
George Washington
John Adams
Thomas Jefferson
James Madison
James Monroe
John Quincy Adams
1 3 4 2 6 5
1 6 3 2 4 5
1 5 6 3 4 2
5 2 3 4 1 6

7
George Washington
John Adams
Thomas Jefferson
James Madison
James Monroe
John Quincy Adams
Andrew Jackson
3 6 2 1 4 7 5
4 3 2 5 7 6 1
3 4 5 2 6 1 7
6 2 3 4 1 7 5

2
George Washington
John Adams
2 1
2 1
2 1
1 2

7
George Washington
John Adams
Thomas Jefferson
James Madison
James Monroe
John Quincy Adams
Andrew Jackson
6 4 2 7 1 5 3
4 3 2 5 7 6 1
3 4 5 2 6 1 7
6 2 3 4 1 7 5
5 1 2 3 4 7 6
